-64 -80 -8 40 -32 -48 -48 -72 536
-16 -16 -40 -8 32 -48 -80 -56 632
-8 -16 -56 -32 -8 -40 64 -32 672
-80 -64 -48 -56 -40 64 -16 -24 536
-24 -56 -56 -32 -80 -40 24 -72 544
-24 -8 -16 -56 -16 -24 56 -56 672
-72 -56 -32 -64 24 -72 -40 -64 504
-16 -80 -8 -32 -56 16 -16 -64 640
-72 -24 -56 -56 8 -64 -40 -40 568
-56 -40 -72 -80 64 -32 -16 -80 488
-24 -8 -72 -40 -80 -24 56 -80 544
-72 -72 56 -32 -80 -24 -32 -56 504
-16 16 -48 -16 -8 -48 -24 -24 728
-24 -48 -48 -16 -16 -8 -8 768
-32 -56 -64 -32 8 -16 -16 -16 688
