-64 -56 856
-64 -56 -40 -56 744
-64 -56 -40 -56 -40 -48 640
-64 -56 -40 -56 -40 -48 -64 -56 504
-64 -56 -40 -56 -40 -48 -64 -56 -40 -40 408
-64 56 -40 -56 -40 -48 -64 -56 -40 -40 408
128 -40 -56 -40 -48 -64 -56 -40 -40 408
176 -56 -40 -48 -64 -56 -40 -40 408
-992
-160 -160 -160 -160 320
-160 -160 -160 -160 -160 -152
-160 -160 -160 -160 -160 -152
832 -152
